module go-fiber-test

go 1.20

require (
	github.com/gofiber/fiber/v2 v2.42.0
	gorm.io/driver/mysql v1.4.7
	gorm.io/gorm v1.24.6
)



require (
	github.com/andybalholm/brotli v1.0.5 // indirect
	github.com/go-sql-driver/mysql v1.7.0 // indirect
	github.com/gofiber/fiber v1.14.6
	github.com/golang-jwt/jwt/v5 v5.0.0-rc.1 // indirect
	github.com/google/uuid v1.3.0 // indirect
	github.com/gorilla/mux v1.8.0 // indirect
	github.com/jinzhu/inflection v1.0.0 // indirect
	github.com/jinzhu/now v1.1.5 // indirect
	github.com/joho/godotenv v1.5.1 // indirect
	github.com/klauspost/compress v1.16.3 // indirect
	github.com/mattn/go-colorable v0.1.13 // indirect
	github.com/mattn/go-isatty v0.0.17 // indirect
	github.com/mattn/go-runewidth v0.0.14 // indirect
	github.com/philhofer/fwd v1.1.2 // indirect
	github.com/rivo/uniseg v0.4.4 // indirect
	github.com/savsgio/dictpool v0.0.0-20221023140959-7bf2e61cea94 // indirect
	github.com/savsgio/gotils v0.0.0-20230208104028-c358bd845dee // indirect
	github.com/tinylib/msgp v1.1.8 // indirect
	github.com/valyala/bytebufferpool v1.0.0 // indirect
	github.com/valyala/fasthttp v1.44.0 // indirect
	github.com/valyala/tcplisten v1.0.0 // indirect
	golang.org/x/crypto v0.7.0 // indirect
	golang.org/x/sys v0.6.0 // indirect
)
